…
By default, the tuning parameters alpha and lamda have three values (tuneLength = 3 in train function). Let´s try 20.

# train glmnet model with tuneLength = 10
model_glmnet <- train(x = df_x, y = df_y, 
                   method = "glmnet",
                   metric = "ROC",
                   tuneLength = 20,
                   trControl = my_trainControl)

model_glmnet$results %>% 
  as.tibble %>%  
  arrange(desc(ROC))

## # A tibble: 400 x 8
##    alpha lambda   ROC  Sens  Spec   ROCSD  SensSD SpecSD
##    <dbl>  <dbl> <dbl> <dbl> <dbl>   <dbl>   <dbl>  <dbl>
##  1 0.1   0.0552 0.993 0.991 0.908 0.00200 0.00726 0.0417
##  2 0.147 0.0552 0.993 0.991 0.908 0.00216 0.00749 0.0417
##  3 0.1   0.0356 0.993 0.987 0.913 0.00183 0.0111  0.0424
##  4 0.1   0.0856 0.993 0.991 0.898 0.00228 0.00619 0.0406
##  5 0.147 0.0356 0.992 0.988 0.914 0.00192 0.0114  0.0403
##  6 0.195 0.0552 0.992 0.990 0.907 0.00230 0.00680 0.0429
##  7 0.195 0.0356 0.992 0.988 0.911 0.00200 0.0106  0.0426
##  8 0.147 0.0856 0.992 0.992 0.896 0.00236 0.00640 0.0412
##  9 0.242 0.0356 0.992 0.988 0.910 0.00212 0.0125  0.0430
## 10 0.242 0.0552 0.992 0.990 0.906 0.00240 0.00854 0.0447
## # ... with 390 more rows
…
