…
Map map map

# initiating df with extraction of car prize
df <- html_list %>% map(getText, ".fs-tluste") %>%  map(~.[2:nrow(.),]) %>% bind_rows()
df <- df %>%
  rename(cost = value) %>% 
  # extract engine
  mutate(model = html_list %>% map(getText, ".motor") %>% unlist) %>% 
  # extract mileage
  mutate(mileage = html_list %>% map(getText, ".najeto") %>% unlist) %>% 
  # extract year of production
  mutate(year = html_list %>% map(getText, ".rok_vyroby") %>% unlist)
df

## # A tibble: 1,111 x 4
##    cost       model                    mileage year 
##    <chr>      <chr>                    <chr>   <chr>
##  1 147 000 Kč benzin, 1 198 ccm, 63 kW 162 tkm 2014 
##  2 155 000 Kč benzin, 1 197 ccm, 77 kW 161 tkm 2013 
##  3 169 000 Kč benzin, 1 200 ccm, 77 kW 125 tkm 2012 
##  4 169 000 Kč benzin, 1 197 ccm, 63 kW 178 tkm 2013 
##  5 169 900 Kč benzin, 1 197 ccm, 63 kW 108 tkm 2013 
##  6 170 000 Kč benzin, 1 198 ccm, 63 kW 106 tkm 2013 
##  7 174 000 Kč benzin, 1 197 ccm, 63 kW 118 tkm 2013 
##  8 178 000 Kč benzin, 1 197 ccm, 63 kW 134 tkm 2014 
##  9 179 000 Kč benzin, 1 200 ccm, 63 kW 130 tkm 2014 
## 10 179 000 Kč benzin, 1 197 ccm, 63 kW 153 tkm 2014 
## # ... with 1,101 more rows
…
  mutate(cost = cost %>% as.numeric()) %>%
  # extract power
  mutate(kW = str_extract(model, "[0-9]{2} kW")) %>% 
  # get rid off "kW"
  mutate(kW = str_extract(kW, "[0-9]{2}")) %>% 
  # conversion to factor
  mutate(kW = kW %>% as.factor()) %>% 
  # extract mileage 
  mutate(mileage = str_extract(mileage, "^[0-9]+")) %>%
  # conversion to double
  mutate(mileage = mileage %>% as.numeric() * 1000) %>% 
  select(model, mileage, cost, kW, year)
final

## # A tibble: 1,111 x 5
##    model                    mileage   cost kW    year 
##    <chr>                      <dbl>  <dbl> <fct> <chr>
##  1 benzin, 1 198 ccm, 63 kW  162000 147000 63    2014 
##  2 benzin, 1 197 ccm, 77 kW  161000 155000 77    2013 
##  3 benzin, 1 200 ccm, 77 kW  125000 169000 77    2012 
##  4 benzin, 1 197 ccm, 63 kW  178000 169000 63    2013 
##  5 benzin, 1 197 ccm, 63 kW  108000 169900 63    2013 
##  6 benzin, 1 198 ccm, 63 kW  106000 170000 63    2013 
##  7 benzin, 1 197 ccm, 63 kW  118000 174000 63    2013 
##  8 benzin, 1 197 ccm, 63 kW  134000 178000 63    2014 
##  9 benzin, 1 200 ccm, 63 kW  130000 179000 63    2014 
## 10 benzin, 1 197 ccm, 63 kW  153000 179000 63    2014 
## # ... with 1,101 more rows
…
