Data playground - How to model using caret package - cookbook
…
By default, the tuning parameters alpha and lamda have three values (tuneLength = 3 in train function). Let´s try 20.

# train glmnet model with tuneLength = 10
model_glmnet <- train(x = df_x, y = df_y, 
                   method = "glmnet",
                   metric = "ROC",
                   tuneLength = 20,
                   trControl = my_trainControl)

model_glmnet$results %>% 
  as.tibble %>%  
  arrange(desc(ROC))

## # A tibble: 400 x 8
##    alpha lambda   ROC  Sens  Spec   ROCSD  SensSD SpecSD
##    <dbl>  <dbl> <dbl> <dbl> <dbl>   <dbl>   <dbl>  <dbl>
##  1 0.1   0.0856 0.990 0.984 0.893 0.00494 0.0134  0.0517
##  2 0.1   0.0552 0.990 0.981 0.905 0.00513 0.0164  0.0559
##  3 0.147 0.0856 0.990 0.984 0.890 0.00496 0.0116  0.0533
##  4 0.147 0.0552 0.989 0.981 0.902 0.00526 0.0153  0.0549
##  5 0.1   0.133  0.989 0.986 0.882 0.00470 0.0103  0.0503
##  6 0.1   0.0356 0.989 0.979 0.914 0.00540 0.0158  0.0498
##  7 0.147 0.0356 0.989 0.979 0.912 0.00555 0.0158  0.0512
##  8 0.195 0.0552 0.989 0.981 0.899 0.00540 0.0139  0.0553
##  9 0.147 0.133  0.989 0.987 0.877 0.00471 0.00978 0.0482
## 10 0.195 0.0856 0.989 0.985 0.890 0.00512 0.0108  0.0516
## # ... with 390 more rows
…
