…
Simple exploratory analysis

Top 20 movies according to IMDB scores

First check the num_voted_users of movies with top 10 imdb_scores.

df %>% 
  arrange(desc(imdb_score)) %>% 
  slice(1:20) %>% 
  arrange(num_voted_users) %>%
  select(movie_title,num_voted_users) %>% 
  print(n=10)

## # A tibble: 20 x 2
##    movie_title                                    num_voted_users
##    <chr>                                                    <dbl>
##  1 Towering Inferno                                            10
##  2 Kickboxer: Vengeance                                       246
##  3 Dekalog                                                  12590
##  4 It's Always Sunny in Philadelphia                       133415
##  5 Fargo                                                   170055
##  6 Daredevil                                               213483
##  7 12 Angry Men                                            447785
##  8 The Good, the Bad and the Ugly                          503509
##  9 The Godfather: Part II                                  790926
## 10 Star Wars: Episode V - The Empire Strikes Back          837759
## # ... with 10 more rows
…
