…
By default, the tuning parameters alpha and lamda have three values (tuneLength = 3 in train function). Let´s try 20.

# train glmnet model with tuneLength = 10
model_glmnet <- train(x = df_x, y = df_y, 
                   method = "glmnet",
                   metric = "ROC",
                   tuneLength = 20,
                   trControl = my_trainControl)

model_glmnet$results %>% 
  as.tibble %>%  
  arrange(desc(ROC))

## # A tibble: 400 x 8
##    alpha lambda   ROC  Sens  Spec   ROCSD SensSD SpecSD
##    <dbl>  <dbl> <dbl> <dbl> <dbl>   <dbl>  <dbl>  <dbl>
##  1 0.1   0.0856 0.988 0.979 0.894 0.00661 0.0212 0.0383
##  2 0.1   0.0552 0.988 0.975 0.900 0.00643 0.0228 0.0362
##  3 0.1   0.133  0.988 0.982 0.883 0.00654 0.0219 0.0400
##  4 0.1   0.206  0.988 0.983 0.865 0.00643 0.0213 0.0353
##  5 0.1   0.0356 0.987 0.973 0.906 0.00628 0.0238 0.0358
##  6 0.147 0.0856 0.987 0.978 0.892 0.00647 0.0220 0.0385
##  7 0.1   0.319  0.987 0.988 0.847 0.00613 0.0171 0.0363
##  8 0.147 0.133  0.987 0.982 0.881 0.00632 0.0202 0.0402
##  9 0.147 0.0552 0.987 0.975 0.900 0.00646 0.0235 0.0391
## 10 0.147 0.206  0.987 0.984 0.858 0.00607 0.0188 0.0376
## # ... with 390 more rows
…
