…
## Warning: `as.tibble()` is deprecated, use `as_tibble()` (but mind the new semantics).
## This warning is displayed once per session.

df <- df %>%
  rename(cost = value) %>% 
  # extract engine
  mutate(model = html_list %>% map(getText, ".motor") %>% unlist) %>% 
  # extract mileage
  mutate(mileage = html_list %>% map(getText, ".najeto") %>% unlist) %>% 
  # extract year of production
  mutate(year = html_list %>% map(getText, ".rok_vyroby") %>% unlist)
df

## # A tibble: 773 x 4
##    cost       model                    mileage year 
##    <chr>      <chr>                    <chr>   <chr>
##  1 125 024 Kč benzin, 42 kW            39 tkm  1984 
##  2 129 999 Kč benzin, 1 197 ccm, 63 kW 276 tkm 2014 
##  3 134 400 Kč benzin, 1 197 ccm, 63 kW 119 tkm 2014 
##  4 149 900 Kč benzin, 1 198 ccm, 55 kW 87 tkm  2013 
##  5 155 000 Kč benzin, 1 197 ccm, 63 kW 153 tkm 2015 
##  6 159 000 Kč benzin, 1 197 ccm, 63 kW 156 tkm 2014 
##  7 159 000 Kč benzin, 1 197 ccm, 63 kW 132 tkm 2013 
##  8 160 000 Kč benzin, 1 197 ccm, 63 kW 122 tkm 2013 
##  9 164 000 Kč benzin, 1 197 ccm, 63 kW 102 tkm 2013 
## 10 168 000 Kč benzin, 1 197 ccm, 66 kW 197 tkm 2015 
## # ... with 763 more rows
…
  mutate(cost = cost %>% as.numeric()) %>%
  # extract power
  mutate(kW = str_extract(model, "[0-9]{2} kW")) %>% 
  # get rid off "kW"
  mutate(kW = str_extract(kW, "[0-9]{2}")) %>% 
  # conversion to factor
  mutate(kW = kW %>% as.factor()) %>% 
  # extract mileage 
  mutate(mileage = str_extract(mileage, "^[0-9]+")) %>%
  # conversion to double
  mutate(mileage = mileage %>% as.numeric() * 1000) %>% 
  select(model, mileage, cost, kW, year)
final

## # A tibble: 773 x 5
##    model                    mileage   cost kW    year 
##    <chr>                      <dbl>  <dbl> <fct> <chr>
##  1 benzin, 42 kW              39000 125024 42    1984 
##  2 benzin, 1 197 ccm, 63 kW  276000 129999 63    2014 
##  3 benzin, 1 197 ccm, 63 kW  119000 134400 63    2014 
##  4 benzin, 1 198 ccm, 55 kW   87000 149900 55    2013 
##  5 benzin, 1 197 ccm, 63 kW  153000 155000 63    2015 
##  6 benzin, 1 197 ccm, 63 kW  156000 159000 63    2014 
##  7 benzin, 1 197 ccm, 63 kW  132000 159000 63    2013 
##  8 benzin, 1 197 ccm, 63 kW  122000 160000 63    2013 
##  9 benzin, 1 197 ccm, 63 kW  102000 164000 63    2013 
## 10 benzin, 1 197 ccm, 66 kW  197000 168000 66    2015 
## # ... with 763 more rows
…
