…
  filter(parameter == "S") %>% 
  select(-year_total, -parameter) %>% 
  
  gather(key = "month", value = "precipitation", -year, -region) %>% 
  
  mutate(precipitation = precipitation %>% as.numeric()) %>% 
  mutate(year_month = paste(month, year, sep = "-") %>% parse_date_time("%b-%Y", tz = "CET")) %>% 
  select(year_month, year, month, region, precipitation) -> df_prep_raw

df_prep_raw

## # A tibble: 9,744 x 5
##    year_month          year  month region              precipitation
##    <dttm>              <chr> <chr> <chr>                       <dbl>
##  1 1961-01-01 00:00:00 1961  Jan   Česká republika                22
##  2 1961-01-01 00:00:00 1961  Jan   Praha a Středočeský            15
##  3 1961-01-01 00:00:00 1961  Jan   Jihočeský                      14
##  4 1961-01-01 00:00:00 1961  Jan   Plzeňský                       22
##  5 1961-01-01 00:00:00 1961  Jan   Karlovarský                    39
##  6 1961-01-01 00:00:00 1961  Jan   Ústecký                        23
##  7 1961-01-01 00:00:00 1961  Jan   Liberecký                      41
##  8 1961-01-01 00:00:00 1961  Jan   Královéhradecký                38
##  9 1961-01-01 00:00:00 1961  Jan   Pardubický                     21
## 10 1961-01-01 00:00:00 1961  Jan   Vysočina                       16
## # ... with 9,734 more rows
…
