…
BTW

There is even a function ocr_data providing confidence how well each word was recognized.

path %>%
  image_read() %>% 
  image_resize("2000x") %>% 
  image_convert(type="grayscale") %>%
  image_contrast() %>%
  image_enhance() %>%
  ocr_data() %>% 
  arrange(desc(confidence)) %>% 
  print(n=10)

## # A tibble: 29 x 3
##    word               confidence bbox             
##    <chr>                   <dbl> <chr>            
##  1 System                   96.6 542,236,791,294  
##  2 Service                  96.5 112,236,362,294  
##  3 Serial                   96.3 820,236,1008,294 
##  4 System                   96.1 116,402,360,473  
##  5 Call                     95.6 389,236,514,294  
##  6 Number                   95.4 1039,236,1305,294
##  7 P/N:                     93.7 198,122,324,215  
##  8 8-01532-01               92.2 642,126,983,178  
##  9 S/N:                     90.3 386,402,524,458  
## 10 QTMCHOU-12345AB678       89.4 616,401,1454,459 
## # ... with 19 more rows
