…
Tibble is always good starting point..

df_raw <- tibble(orig_path = path_vector, data = lst)
df_raw

## # A tibble: 6,944 x 2
##    orig_path                                                     data     
##    <chr>                                                         <list>   
##  1 D:/GoogleDrive/Takeout/Fotky Google/2004_06 Budvar factory p~ <list [9~
##  2 D:/GoogleDrive/Takeout/Fotky Google/2004_06 Budvar factory p~ <list [9~
##  3 D:/GoogleDrive/Takeout/Fotky Google/2004_06 Budvar factory p~ <list [9~
##  4 D:/GoogleDrive/Takeout/Fotky Google/2004_06 Budvar factory p~ <list [9~
##  5 D:/GoogleDrive/Takeout/Fotky Google/2004_06 Budvar factory p~ <list [9~
##  6 D:/GoogleDrive/Takeout/Fotky Google/2004_06 Budvar factory p~ <list [9~
##  7 D:/GoogleDrive/Takeout/Fotky Google/2004_06 Budvar factory p~ <list [9~
##  8 D:/GoogleDrive/Takeout/Fotky Google/2004_06 Budvar factory p~ <list [9~
##  9 D:/GoogleDrive/Takeout/Fotky Google/2004_06 Budvar factory p~ <list [9~
## 10 D:/GoogleDrive/Takeout/Fotky Google/2004_06 Budvar factory p~ <list [9~
## # ... with 6,934 more rows
…
  mutate(google_path = map_chr(data, "url")) %>% 
  # exclude video files
  filter(!str_detect(google_path, "video-downloads")) %>%
  # this will modify the link in order to display in popup window later instead of download
  mutate(google_path = str_replace(google_path, "/s0-d", "")) %>% 
  # extract GPS location
  mutate(lat = map(data, "geoData") %>% map_dbl(., "latitude")) %>%
  mutate(lon = map(data, "geoData") %>% map_dbl(., "longitude")) %>%
  # extract photo taken time
  mutate(photo_taken_time = map(data, "photoTakenTime") %>% map_chr(., "formatted")) %>%
  mutate(photo_taken_time = dmy_hms(photo_taken_time)) %>% 
  select(-data)
df

## # A tibble: 6,725 x 5
##    orig_path           google_path           lat   lon photo_taken_time   
##    <chr>               <chr>               <dbl> <dbl> <dttm>             
##  1 D:/GoogleDrive/Tak~ https://lh3.google~     0     0 2004-06-01 17:00:00
##  2 D:/GoogleDrive/Tak~ https://lh3.google~     0     0 2004-06-01 17:00:00
##  3 D:/GoogleDrive/Tak~ https://lh3.google~     0     0 2004-06-01 17:00:00
##  4 D:/GoogleDrive/Tak~ https://lh3.google~     0     0 2004-06-01 17:00:00
##  5 D:/GoogleDrive/Tak~ https://lh3.google~     0     0 2004-06-01 17:00:00
##  6 D:/GoogleDrive/Tak~ https://lh3.google~     0     0 2004-06-01 17:00:00
##  7 D:/GoogleDrive/Tak~ https://lh3.google~     0     0 2004-06-01 17:00:00
##  8 D:/GoogleDrive/Tak~ https://lh3.google~     0     0 2004-06-01 17:00:00
##  9 D:/GoogleDrive/Tak~ https://lh3.google~     0     0 2004-06-01 17:00:00
## 10 D:/GoogleDrive/Tak~ https://lh3.google~     0     0 2004-06-01 17:00:00
## # ... with 6,715 more rows
…
