…
Really Google, 30% “taken out” only?

Well, that´s not what I consider sufficient. I know the Google Photos is free, but this is not what I would expect from leading IT company. Besides, I´m not the only one with this issue based on Google´s forum, yet no feedack or reaction from Google.

Anyway, let´s to do it on our own. As mentioned, we can leverage the JSON files as they contain the url (to Google server) to each photo. My target is to save the files into the same folder (album) as where is the JSON file.

Let´s make a tibble of all JSON files (Photos) we want to extract url from.

df_raw <- tibble(json_orig_path = dir_ls("D:/Google_Photos_Backup", 
                                         recursive = TRUE, 
                                         regex = "*.json$"))
df_raw

## # A tibble: 7,295 x 1
##    json_orig_path                                
##    <fs::path>                                    
##  1 D:/Google_Photos_Backup/1984/metadata.json    
##  2 D:/Google_Photos_Backup/1984/P1010212.JPG.json
##  3 D:/Google_Photos_Backup/1984/P1010213.JPG.json
##  4 D:/Google_Photos_Backup/1984/P1010214.JPG.json
##  5 D:/Google_Photos_Backup/1984/P1010215.JPG.json
##  6 D:/Google_Photos_Backup/1984/P1010216.JPG.json
##  7 D:/Google_Photos_Backup/1985/metadata.json    
##  8 D:/Google_Photos_Backup/1985/P1000439.JPG.json
##  9 D:/Google_Photos_Backup/1987/metadata.json    
## 10 D:/Google_Photos_Backup/1987/P1000442.JPG.json
## # ... with 7,285 more rows
…
