…
or straight to tibble:

got_chars %>% map_df(~.[c("name", "gender")])

## # A tibble: 30 x 2
##    name               gender
##    <chr>              <chr> 
##  1 Theon Greyjoy      Male  
##  2 Tyrion Lannister   Male  
##  3 Victarion Greyjoy  Male  
##  4 Will               Male  
##  5 Areo Hotah         Male  
##  6 Chett              Male  
##  7 Cressen            Male  
##  8 Arianne Martell    Female
##  9 Daenerys Targaryen Female
## 10 Davos Seaworth     Male  
## # ... with 20 more rows
…
..it doesn´t work beacause some characters have more than one aliase.

But this does:

# alias will be list-colum ("nested")
df <- tibble(
  name = got_chars %>% map_chr("name"),
  id = got_chars %>% map_int("id"),
  gender = got_chars %>% map_chr("gender"),
  aliases = got_chars %>% map("aliases")
)
df

## # A tibble: 30 x 4
##    name                  id gender aliases   
##    <chr>              <int> <chr>  <list>    
##  1 Theon Greyjoy       1022 Male   <chr [4]> 
##  2 Tyrion Lannister    1052 Male   <chr [11]>
##  3 Victarion Greyjoy   1074 Male   <chr [1]> 
##  4 Will                1109 Male   <chr [1]> 
##  5 Areo Hotah          1166 Male   <chr [1]> 
##  6 Chett               1267 Male   <chr [1]> 
##  7 Cressen             1295 Male   <chr [1]> 
##  8 Arianne Martell      130 Female <chr [1]> 
##  9 Daenerys Targaryen  1303 Female <chr [11]>
## 10 Davos Seaworth      1319 Male   <chr [5]> 
## # ... with 20 more rows

..it works because alias is bind as list-colum (“nested”)

Using unnest comes handy now? Nope yet..

df %>% 
  unnest()

## Warning: `cols` is now required.
## Please use `cols = c(aliases)`

## # A tibble: 114 x 4
##    name                id gender aliases           
##    <chr>            <int> <chr>  <chr>             
##  1 Theon Greyjoy     1022 Male   Prince of Fools   
##  2 Theon Greyjoy     1022 Male   Theon Turncloak   
##  3 Theon Greyjoy     1022 Male   Reek              
##  4 Theon Greyjoy     1022 Male   Theon Kinslayer   
##  5 Tyrion Lannister  1052 Male   The Imp           
##  6 Tyrion Lannister  1052 Male   Halfman           
##  7 Tyrion Lannister  1052 Male   The boyman        
##  8 Tyrion Lannister  1052 Male   Giant of Lannister
##  9 Tyrion Lannister  1052 Male   Lord Tywin's Doom 
## 10 Tyrion Lannister  1052 Male   Lord Tywin's Bane 
## # ... with 104 more rows
…
##  [1] FALSE FALSE FALSE FALSE FALSE FALSE FALSE FALSE FALSE FALSE FALSE
## [12] FALSE FALSE FALSE FALSE FALSE FALSE FALSE  TRUE FALSE FALSE FALSE
## [23] FALSE FALSE FALSE FALSE FALSE FALSE FALSE FALSE

We can use replace_na to replace NULL to "" or whatever and unnest afterwards.

df %>% 
  replace_na(list(aliases=list(""))) %>% 
  unnest()

## Warning: `cols` is now required.
## Please use `cols = c(aliases)`

## # A tibble: 115 x 4
##    name                id gender aliases           
##    <chr>            <int> <chr>  <chr>             
##  1 Theon Greyjoy     1022 Male   Prince of Fools   
##  2 Theon Greyjoy     1022 Male   Theon Turncloak   
##  3 Theon Greyjoy     1022 Male   Reek              
##  4 Theon Greyjoy     1022 Male   Theon Kinslayer   
##  5 Tyrion Lannister  1052 Male   The Imp           
##  6 Tyrion Lannister  1052 Male   Halfman           
##  7 Tyrion Lannister  1052 Male   The boyman        
##  8 Tyrion Lannister  1052 Male   Giant of Lannister
##  9 Tyrion Lannister  1052 Male   Lord Tywin's Doom 
## 10 Tyrion Lannister  1052 Male   Lord Tywin's Bane 
## # ... with 105 more rows

To tibble asap

..extracting using mutate+map+unnest 
..allows iterative approach - more decomposed code and faster debugging

a) directly to tibble

tibble(name = got_chars %>% map_chr(~.$name)) %>% 
  mutate(id =  got_chars %>% map_int(~.$id)) %>% 
  mutate(aliases =  got_chars %>% map(~.$aliases)) %>%
  replace_na(list(aliases = list(""))) %>% 
  unnest(aliases)

## # A tibble: 115 x 3
##    name                id aliases           
##    <chr>            <int> <chr>             
##  1 Theon Greyjoy     1022 Prince of Fools   
##  2 Theon Greyjoy     1022 Theon Turncloak   
##  3 Theon Greyjoy     1022 Reek              
##  4 Theon Greyjoy     1022 Theon Kinslayer   
##  5 Tyrion Lannister  1052 The Imp           
##  6 Tyrion Lannister  1052 Halfman           
##  7 Tyrion Lannister  1052 The boyman        
##  8 Tyrion Lannister  1052 Giant of Lannister
##  9 Tyrion Lannister  1052 Lord Tywin's Doom 
## 10 Tyrion Lannister  1052 Lord Tywin's Bane 
## # ... with 105 more rows
…
## Warning: The `.drop` argument of `unnest()` is deprecated as of tidyr 1.0.0.
## All list-columns are now preserved.
## This warning is displayed once per session.
## Call `lifecycle::last_warnings()` to see where this warning was generated.

## # A tibble: 115 x 5
##    name             data                 id  id_2 aliases           
##    <chr>            <list>            <int> <int> <chr>             
##  1 Theon Greyjoy    <named list [18]>  1022  1022 Prince of Fools   
##  2 Theon Greyjoy    <named list [18]>  1022  1022 Theon Turncloak   
##  3 Theon Greyjoy    <named list [18]>  1022  1022 Reek              
##  4 Theon Greyjoy    <named list [18]>  1022  1022 Theon Kinslayer   
##  5 Tyrion Lannister <named list [18]>  1052  1052 The Imp           
##  6 Tyrion Lannister <named list [18]>  1052  1052 Halfman           
##  7 Tyrion Lannister <named list [18]>  1052  1052 The boyman        
##  8 Tyrion Lannister <named list [18]>  1052  1052 Giant of Lannister
##  9 Tyrion Lannister <named list [18]>  1052  1052 Lord Tywin's Doom 
## 10 Tyrion Lannister <named list [18]>  1052  1052 Lord Tywin's Bane 
## # ... with 105 more rows
…
..here is good to realize that data is basically replicated gh_repos.

# now mutate whatever you want by extracting using mutate + map depending on level of nest
t %>% 
  mutate(package = data %>% map(map_chr, ~.$name)) %>%
  # the index = 1 is OK here as we will extract just one (first) item from sub-list as all others are the same.
  mutate(owner_url = data %>% map_chr(~.[[1]]$owner$url)) %>% 
  unnest(package, .drop = FALSE)

## # A tibble: 176 x 4
##    name        data        package    owner_url                            
##    <chr>       <list>      <chr>      <chr>                                
##  1 gaborcsardi <list [30]> after      https://api.github.com/users/gaborcs~
##  2 gaborcsardi <list [30]> argufy     https://api.github.com/users/gaborcs~
##  3 gaborcsardi <list [30]> ask        https://api.github.com/users/gaborcs~
##  4 gaborcsardi <list [30]> baseimpor~ https://api.github.com/users/gaborcs~
##  5 gaborcsardi <list [30]> citest     https://api.github.com/users/gaborcs~
##  6 gaborcsardi <list [30]> clisymbols https://api.github.com/users/gaborcs~
##  7 gaborcsardi <list [30]> cmaker     https://api.github.com/users/gaborcs~
##  8 gaborcsardi <list [30]> cmark      https://api.github.com/users/gaborcs~
##  9 gaborcsardi <list [30]> conditions https://api.github.com/users/gaborcs~
## 10 gaborcsardi <list [30]> crayon     https://api.github.com/users/gaborcs~
## # ... with 166 more rows
