Data playground - Purrr´s map and friends - good practise
…
or straight to tibble:

got_chars %>% map_df(~.[c("name", "gender")])

## # A tibble: 30 x 2
##    name               gender
##    <chr>              <chr> 
##  1 Theon Greyjoy      Male  
##  2 Tyrion Lannister   Male  
##  3 Victarion Greyjoy  Male  
##  4 Will               Male  
##  5 Areo Hotah         Male  
##  6 Chett              Male  
##  7 Cressen            Male  
##  8 Arianne Martell    Female
##  9 Daenerys Targaryen Female
## 10 Davos Seaworth     Male  
## # ... with 20 more rows
…
..it doesn´t work beacause some characters have more than one aliase.

But this does:

# alias will be list-colum ("nested")
df <- tibble(
  name = got_chars %>% map_chr("name"),
  id = got_chars %>% map_int("id"),
  gender = got_chars %>% map_chr("gender"),
  aliases = got_chars %>% map("aliases")
)
df

## # A tibble: 30 x 4
##    name                  id gender aliases   
##    <chr>              <int> <chr>  <list>    
##  1 Theon Greyjoy       1022 Male   <chr [4]> 
##  2 Tyrion Lannister    1052 Male   <chr [11]>
##  3 Victarion Greyjoy   1074 Male   <chr [1]> 
##  4 Will                1109 Male   <chr [1]> 
##  5 Areo Hotah          1166 Male   <chr [1]> 
##  6 Chett               1267 Male   <chr [1]> 
##  7 Cressen             1295 Male   <chr [1]> 
##  8 Arianne Martell      130 Female <chr [1]> 
##  9 Daenerys Targaryen  1303 Female <chr [11]>
## 10 Davos Seaworth      1319 Male   <chr [5]> 
## # ... with 20 more rows
…
..it is because some of alias has NA (NULL) value (# NULL are the list-col equivalent of NAs):

df$aliases %>% map_lgl(is.null)

##  [1] FALSE FALSE FALSE FALSE FALSE FALSE FALSE FALSE FALSE FALSE FALSE
## [12] FALSE FALSE FALSE FALSE FALSE FALSE FALSE  TRUE FALSE FALSE FALSE
## [23] FALSE FALSE FALSE FALSE FALSE FALSE FALSE FALSE

We can use replace_na to replace NULL to "" or whatever and unnest afterwards.

df %>% 
  replace_na(list(aliases=list(""))) %>% 
  unnest()

## # A tibble: 115 x 4
##    name                id gender aliases           
##    <chr>            <int> <chr>  <chr>             
##  1 Theon Greyjoy     1022 Male   Prince of Fools   
##  2 Theon Greyjoy     1022 Male   Theon Turncloak   
##  3 Theon Greyjoy     1022 Male   Reek              
##  4 Theon Greyjoy     1022 Male   Theon Kinslayer   
##  5 Tyrion Lannister  1052 Male   The Imp           
##  6 Tyrion Lannister  1052 Male   Halfman           
##  7 Tyrion Lannister  1052 Male   The boyman        
##  8 Tyrion Lannister  1052 Male   Giant of Lannister
##  9 Tyrion Lannister  1052 Male   Lord Tywin's Doom 
## 10 Tyrion Lannister  1052 Male   Lord Tywin's Bane 
## # ... with 105 more rows

To tibble asap

..extracting using mutate+map+unnest 
..allows iterative approach - more decomposed code and faster debugging

a) directly to tibble

tibble(name = got_chars %>% map_chr(~.$name)) %>% 
  mutate(id =  got_chars %>% map_int(~.$id)) %>% 
  mutate(aliases =  got_chars %>% map(~.$aliases)) %>%
  replace_na(list(aliases = list(""))) %>% 
  unnest(aliases)

## # A tibble: 115 x 3
##    name                id aliases           
##    <chr>            <int> <chr>             
##  1 Theon Greyjoy     1022 Prince of Fools   
##  2 Theon Greyjoy     1022 Theon Turncloak   
##  3 Theon Greyjoy     1022 Reek              
##  4 Theon Greyjoy     1022 Theon Kinslayer   
##  5 Tyrion Lannister  1052 The Imp           
##  6 Tyrion Lannister  1052 Halfman           
##  7 Tyrion Lannister  1052 The boyman        
##  8 Tyrion Lannister  1052 Giant of Lannister
##  9 Tyrion Lannister  1052 Lord Tywin's Doom 
## 10 Tyrion Lannister  1052 Lord Tywin's Bane 
## # ... with 105 more rows

b) set_names and enframe the list (in fact it is directly to tibble too)

got_chars %>% 
  set_names(., got_chars %>% map_chr(~.$name)) %>% 
  enframe(name = "name", value = "data") %>% 
  mutate(id = data %>% map_int(~.$id)) %>% 
  # or
  mutate(id_2 = data %>% map(~.$id) %>% unlist) %>% 
  mutate(aliases =  data %>% map(~.$aliases)) %>%
  replace_na(list(aliases = list(""))) %>% 
  unnest(aliases, .drop = FALSE)

## # A tibble: 115 x 5
##    name             data           id  id_2 aliases           
##    <chr>            <list>      <int> <int> <chr>             
##  1 Theon Greyjoy    <list [18]>  1022  1022 Prince of Fools   
##  2 Theon Greyjoy    <list [18]>  1022  1022 Theon Turncloak   
##  3 Theon Greyjoy    <list [18]>  1022  1022 Reek              
##  4 Theon Greyjoy    <list [18]>  1022  1022 Theon Kinslayer   
##  5 Tyrion Lannister <list [18]>  1052  1052 The Imp           
##  6 Tyrion Lannister <list [18]>  1052  1052 Halfman           
##  7 Tyrion Lannister <list [18]>  1052  1052 The boyman        
##  8 Tyrion Lannister <list [18]>  1052  1052 Giant of Lannister
##  9 Tyrion Lannister <list [18]>  1052  1052 Lord Tywin's Doom 
## 10 Tyrion Lannister <list [18]>  1052  1052 Lord Tywin's Bane 
## # ... with 105 more rows
…
..here is good to realize that data is basically replicated gh_repos.

# now mutate whatever you want by extracting using mutate + map depending on level of nest
t %>% 
  mutate(package = data %>% map(map_chr, ~.$name)) %>%
  # the index = 1 is OK here as we will extract just one (first) item from sub-list as all others are the same.
  mutate(owner_url = data %>% map_chr(~.[[1]]$owner$url)) %>% 
  unnest(package, .drop = FALSE)

## # A tibble: 176 x 4
##    name        data        owner_url                             package   
##    <chr>       <list>      <chr>                                 <chr>     
##  1 gaborcsardi <list [30]> https://api.github.com/users/gaborcs~ after     
##  2 gaborcsardi <list [30]> https://api.github.com/users/gaborcs~ argufy    
##  3 gaborcsardi <list [30]> https://api.github.com/users/gaborcs~ ask       
##  4 gaborcsardi <list [30]> https://api.github.com/users/gaborcs~ baseimpor~
##  5 gaborcsardi <list [30]> https://api.github.com/users/gaborcs~ citest    
##  6 gaborcsardi <list [30]> https://api.github.com/users/gaborcs~ clisymbols
##  7 gaborcsardi <list [30]> https://api.github.com/users/gaborcs~ cmaker    
##  8 gaborcsardi <list [30]> https://api.github.com/users/gaborcs~ cmark     
##  9 gaborcsardi <list [30]> https://api.github.com/users/gaborcs~ conditions
## 10 gaborcsardi <list [30]> https://api.github.com/users/gaborcs~ crayon    
## # ... with 166 more rows
…
